C:\Users\Emir Cem Yavuz\IdeaProjects\HepsiBuradaSoftTech-\src\test\java\HepsiBurada\pages\BasePage.java
C:\Users\Emir Cem Yavuz\IdeaProjects\HepsiBuradaSoftTech-\src\test\java\HepsiBurada\pages\LoginPage.java
C:\Users\Emir Cem Yavuz\IdeaProjects\HepsiBuradaSoftTech-\src\test\java\HepsiBurada\step_definitions\Hooks.java
C:\Users\Emir Cem Yavuz\IdeaProjects\HepsiBuradaSoftTech-\src\test\java\HepsiBurada\utilities\ConfigurationReader.java
C:\Users\Emir Cem Yavuz\IdeaProjects\HepsiBuradaSoftTech-\src\test\java\HepsiBurada\runners\CukesRunner.java
C:\Users\Emir Cem Yavuz\IdeaProjects\HepsiBuradaSoftTech-\src\test\java\HepsiBurada\step_definitions\LoginPageStepDefs.java
C:\Users\Emir Cem Yavuz\IdeaProjects\HepsiBuradaSoftTech-\src\test\java\HepsiBurada\utilities\Driver.java
